^Z:\2학년 1학기\자료구조\과제\DS04\1\4\MAIN.C
Z:\VISUAL_STUDIO\VC\BIN\1033\CLUI.DLL
C:\WINDOWS\GLOBALIZATION\SORTING\SORTDEFAULT.NLS
C:\WINDOWS\SYSTEM32\TZRES.DLL
Z:\VISUAL_STUDIO\VC\INCLUDE\STDIO.H
Z:\VISUAL_STUDIO\VC\INCLUDE\CRTDEFS.H
Z:\VISUAL_STUDIO\VC\INCLUDE\SAL.H
Z:\VISUAL_STUDIO\VC\INCLUDE\CONCURRENCYSAL.H
Z:\VISUAL_STUDIO\VC\INCLUDE\VADEFS.H
Z:\VISUAL_STUDIO\VC\INCLUDE\SWPRINTF.INL
Z:\VISUAL_STUDIO\VC\INCLUDE\STDLIB.H
Z:\VISUAL_STUDIO\VC\INCLUDE\LIMITS.H
Z:\VISUAL_STUDIO\VC\INCLUDE\STRING.H
^Z:\2학년 1학기\자료구조\과제\DS04\4\MAIN.C
Z:\VISUAL_STUDIO\VC\BIN\1033\CLUI.DLL
C:\WINDOWS\GLOBALIZATION\SORTING\SORTDEFAULT.NLS
C:\WINDOWS\SYSTEM32\TZRES.DLL
Z:\VISUAL_STUDIO\VC\INCLUDE\STDIO.H
Z:\VISUAL_STUDIO\VC\INCLUDE\CRTDEFS.H
Z:\VISUAL_STUDIO\VC\INCLUDE\SAL.H
Z:\VISUAL_STUDIO\VC\INCLUDE\CONCURRENCYSAL.H
Z:\VISUAL_STUDIO\VC\INCLUDE\VADEFS.H
Z:\VISUAL_STUDIO\VC\INCLUDE\SWPRINTF.INL
Z:\VISUAL_STUDIO\VC\INCLUDE\STDLIB.H
Z:\VISUAL_STUDIO\VC\INCLUDE\LIMITS.H
Z:\VISUAL_STUDIO\VC\INCLUDE\STRING.H
